
class configElasticsearch(object):
    USER = ''
    PASSWD = ''
    HOST = ''
    PORT = 9200
    INDEX = ''
    
class configAccount(object):
    PORT=3306 # default port MySQL, change if needed
    HOST=""
    USER=""
    PASSWD=""
    DATABASE=""
    

class configSQL(object):
    PORT=3306 # default port MySQL, change if needed
    HOST=""
    USER=""
    PASSWD=""
    DATABASE=""

class configProxies(object):
    HTTP_PROXY = "http://43.254.124.46:3128"
    HTTPS_PROXY = "https://43.254.124.46:3128"

